UVA Health Capstone
…
tib <- tidy(race_model, conf.int = TRUE, exponentiate = TRUE)
tib

#> # A tibble: 25 x 8
#>    y.level   term      estimate std.error statistic   p.value conf.low conf.high
#>    <chr>     <chr>        <dbl>     <dbl>     <dbl>     <dbl>    <dbl>     <dbl>
#>  1 High ED  (Interce    0.109    0.0995   -22.3   3.65e-110   0.0895     0.132
#>  2 High ED  race_buc    0.799    0.744     -0.301 7.64e-  1   0.186      3.44 
#>  3 High ED  race_buc    4.35     0.151      9.76  1.69e- 22   3.24       5.85 
#>  4 High ED  race_buc    0.279    0.724     -1.76  7.80e-  2   0.0675     1.15 
#>  5 High ED  race_buc    0.275    0.396     -3.26  1.12e-  3   0.126      0.598
#>  6 ED Usage  (Interce    0.611    0.0506    -9.75  1.92e- 22   0.553      0.674
#>  7 ED Usage  race_buc    0.498    0.435     -1.60  1.09e-  1   0.213      1.17 
#>  8 ED Usage  race_buc    2.02     0.100      7.04  1.98e- 12   1.66       2.46 
#>  9 ED Usage  race_buc    0.471    0.265     -2.84  4.57e-  3   0.280      0.793
#> 10 ED Usage  race_buc    0.154    0.229     -8.18  2.77e- 16   0.0983     0.241
#> #  with 15 more rows
…
tib <- tidy(mult_model, conf.int = TRUE, exponentiate = TRUE)

#> Warning in sqrt(diag(vc)): NaNs produced

#> Warning in sqrt(diag(vcov(object))): NaNs produced

tib

#> # A tibble: 225 x 8
#>    y.level   term       estimate std.error statistic  p.value conf.low conf.high
#>    <chr>     <chr>         <dbl>     <dbl>     <dbl>    <dbl>    <dbl>     <dbl>
#>  1 High ED  (Intercep   0.0138   0.785      -5.45  4.99e- 8  0.00297    0.0645
#>  2 High ED  Elixhauser   1.41     0.0267     12.8   1.34e-37  1.34       1.48  
#>  3 High ED  insurance   2.28     0.264       3.12  1.78e- 3  1.36       3.82  
#>  4 High ED  insurance   1.40     0.216       1.57  1.16e- 1  0.920      2.14  
#>  5 High ED  insurance   1.79     0.671       0.871 3.84e- 1  0.482      6.68  
#>  6 High ED  Age_mod      0.992    0.00658    -1.17  2.41e- 1  0.980      1.01  
#>  7 High ED  Clrt_SexF   1.32     0.178       1.57  1.17e- 1  0.932      1.87  
#>  8 High ED  Clrt_Ethn   1.38     0.872       0.370 7.11e- 1  0.250      7.63  
#>  9 High ED  Clrt_Ethn  64.0      1.85        2.25  2.44e- 2  1.71    2393.    
#> 10 High ED  Clrt_Ethn   1.99     2.69        0.256 7.98e- 1  0.0103   385.    
#> #  with 215 more rows
…
